%YAML 1.1
%TAG !u! tag:unity3d.com,2011:
--- !u!114 &11400000
MonoBehaviour:
  m_ObjectHideFlags: 0
  m_CorrespondingSourceObject: {fileID: 0}
  m_PrefabInstance: {fileID: 0}
  m_PrefabAsset: {fileID: 0}
  m_GameObject: {fileID: 0}
  m_Enabled: 1
  m_EditorHideFlags: 0
  m_Script: {fileID: 11500000, guid: e651dbb3fbac04af2b8f5abf007ddc23, type: 3}
  m_Name: DefaultNetworkPrefabs
  m_EditorClassIdentifier: 
  IsDefault: 1
  List:
  - Override: 0
    Prefab: {fileID: 2979253336969906961, guid: 2ce86f38d393859469d381043029532c, type: 3}
    SourcePrefabToOverride: {fileID: 0}
    SourceHashToOverride: 0
    OverridingTargetPrefab: {fileID: 0}
  - Override: 0
    Prefab: {fileID: 6977260006006282038, guid: 94e4a064a4a9428429c179c204eca2da, type: 3}
    SourcePrefabToOverride: {fileID: 0}
    SourceHashToOverride: 0
    OverridingTargetPrefab: {fileID: 0}
  - Override: 0
    Prefab: {fileID: 2265477930997922922, guid: a020b40a4cfd19844a38929cb8764d68, type: 3}
    SourcePrefabToOverride: {fileID: 0}
    SourceHashToOverride: 0
    OverridingTargetPrefab: {fileID: 0}
  - Override: 0
    Prefab: {fileID: 4364217611843702853, guid: 02296f7e2ece7fc46bc6e2a6d0759709, type: 3}
    SourcePrefabToOverride: {fileID: 0}
    SourceHashToOverride: 0
    OverridingTargetPrefab: {fileID: 0}
  - Override: 0
    Prefab: {fileID: 5958220330806405548, guid: df2f7509d0653e449a88d356b8672139, type: 3}
    SourcePrefabToOverride: {fileID: 0}
    SourceHashToOverride: 0
    OverridingTargetPrefab: {fileID: 0}
  - Override: 0
    Prefab: {fileID: 733135771799865042, guid: 62f3147057f317949be0557b525d3b36, type: 3}
    SourcePrefabToOverride: {fileID: 0}
    SourceHashToOverride: 0
    OverridingTargetPrefab: {fileID: 0}
  - Override: 0
    Prefab: {fileID: 1702577719542131372, guid: bd928e4007e06594abe7c7e8390173d3, type: 3}
    SourcePrefabToOverride: {fileID: 0}
    SourceHashToOverride: 0
    OverridingTargetPrefab: {fileID: 0}
  - Override: 0
    Prefab: {fileID: 706694305230922687, guid: 300233b7cbcd4c747a04d825e398f779, type: 3}
    SourcePrefabToOverride: {fileID: 0}
    SourceHashToOverride: 0
    OverridingTargetPrefab: {fileID: 0}
  - Override: 0
    Prefab: {fileID: 706694305230922687, guid: 4c5b2c8a7a7566b479d7709b478c687a, type: 3}
    SourcePrefabToOverride: {fileID: 0}
    SourceHashToOverride: 0
    OverridingTargetPrefab: {fileID: 0}
